Collocates Retriever and Collocation Association Measure for the Indonesian Leipzig Corpora • collogetr
…
Simple Collexeme/Collocates Analysis (SCA)

As in the Collostructional Analysis (Stefanowitsch & Gries, 2003), collex_fye() uses one-tailed Fisher-Yates Exact test whose p-FisherExactvalue is log-transformed to the base of 10 to indicate the collostruction strength between the collocates and the node word (Gries, Hampe, & Schönefeld, 2005). collex_fye() simultaneously performs two uni-directional measures of Delta P (Gries, 2013, 2015, p. 524). One of these shows the extent to which the presence of the node-word cues the presence of the collocates/collexemes; the other one determines the extent to which the collocates/collexemes cues the presence of the node-word.

Here is the codes to perform the SCA using collex_fye():

# perform FYE test for Collexeme Analysis
am_fye <- collex_fye(df = assoc_tb, collstr_digit = 3)

Now we can retrieve the top-10 most strongly attracted collocates to mengatakan ‘to say sth.’. The association strength is shown in the collstr column, which stands for collostruction strength. The higher, the stronger the association.

# get the top-10 most strongly attracted collocates
dplyr::top_n(am_fye, 10, collstr)
#> # A tibble: 84 x 9
#> # Groups:   node, w [84]
#>    w     node      a a_exp assoc   p_fye collstr dP_collex_cue_c…
#>    <chr> <chr> <int> <dbl> <chr>   <dbl>   <dbl>            <dbl>
#>  1 peme… meng…     4 0.354 attr… 4.55e-4    3.34            0.024
#>  2 isra… meng…     2 0.078 attr… 2.71e-3    2.57            0.013
#>  3 angk… meng…     1 0.004 attr… 3.69e-3    2.43            0.007
#>  4 ayla  meng…     1 0.004 attr… 3.69e-3    2.43            0.007
#>  5 defi… meng…     1 0.004 attr… 3.69e-3    2.43            0.007
#>  6 hofos meng…     1 0.004 attr… 3.69e-3    2.43            0.007
#>  7 kawa… meng…     1 0.004 attr… 3.69e-3    2.43            0.007
#>  8 kebe… meng…     1 0.004 attr… 3.69e-3    2.43            0.007
#>  9 kete… meng…     1 0.004 attr… 3.69e-3    2.43            0.007
#> 10 konj… meng…     1 0.004 attr… 3.69e-3    2.43            0.007
#> # … with 74 more rows, and 1 more variable: dP_cxn_cue_collex <dbl>
…
