Mutual Information score — collex_MI • collogetr
…
collex_MI(assoc_tb)
#> # A tibble: 301 x 8
#> # Groups:   node, w [301]
#>    w        node      a a_exp assoc        MI dP_collex_cue_cxn dP_cxn_cue_coll…
#>    <chr>    <chr> <int> <dbl> <chr>     <dbl>             <dbl>            <dbl>
#>  1 rumah    ke       10 0.578 attracti…  4.11           0.0361            0.104 
#>  2 luar     ke        6 0.273 attracti…  4.46           0.0219            0.133 
#>  3 arah     ke        5 0.127 attracti…  5.30           0.0186            0.244 
#>  4 berbagai ke        5 0.33  attracti…  3.92           0.0179            0.0899
#>  5 kata     ke        5 1.33  attracti…  1.91           0.0141            0.0177
#>  6 negara   ke        5 0.647 attracti…  2.95           0.0167            0.0428
#>  7 daerah   ke        4 0.489 attracti…  3.03           0.0134            0.0457
#>  8 tempat   ke        4 0.317 attracti…  3.66           0.0141            0.0737
#>  9 belakang ke        3 0.076 attracti…  5.30           0.0112            0.244 
#> 10 dua      ke        3 0.609 attracti…  2.30           0.00915           0.0250
#> # … with 291 more rows
…
