T-Score association measure — collex_TScore • collogetr
…
collex_TScore(assoc_tb)
#> # A tibble: 301 x 8
#> # Groups:   node, w [301]
#>    node  w            a a_exp assoc     tscore dP_collex_cue_c… dP_cxn_cue_coll…
#>    <chr> <chr>    <int> <dbl> <chr>      <dbl>            <dbl>            <dbl>
#>  1 ke    rumah       10 0.578 attracti…   2.98            0.036            0.104
#>  2 ke    luar         6 0.273 attracti…   2.34            0.022            0.133
#>  3 ke    arah         5 0.127 attracti…   2.18            0.019            0.244
#>  4 ke    berbagai     5 0.33  attracti…   2.09            0.018            0.09 
#>  5 ke    kata         5 1.33  attracti…   1.64            0.014            0.018
#>  6 ke    negara       5 0.647 attracti…   1.95            0.017            0.043
#>  7 ke    daerah       4 0.489 attracti…   1.76            0.013            0.046
#>  8 ke    tempat       4 0.317 attracti…   1.84            0.014            0.074
#>  9 ke    belakang     3 0.076 attracti…   1.69            0.011            0.244
#> 10 ke    dua          3 0.609 attracti…   1.38            0.009            0.025
#> # … with 291 more rows
…
